{
    "comicId": "AUG180522",
    "cover": "https://freshcomics.s3.amazonaws.com/issue_covers/AUG180522.jpg",
    "hero": "The Flash",
    "issue": "#56",
    "type": "Foil Cover",
    "release": "October 10, 2018",
    "writer": "Joshua Williamson",
    "illustrator": "Scott Kolins",
    "coverIllustrator": "Dan Panosian"
}
